EESchema Schematic File Version 2
LIBS:power
LIBS:device
LIBS:transistors
LIBS:conn
LIBS:linear
LIBS:regul
LIBS:74xx
LIBS:cmos4000
LIBS:adc-dac
LIBS:memory
LIBS:xilinx
LIBS:microcontrollers
LIBS:dsp
LIBS:microchip
LIBS:analog_switches
LIBS:motorola
LIBS:texas
LIBS:intel
LIBS:audio
LIBS:interface
LIBS:digital-audio
LIBS:philips
LIBS:display
LIBS:cypress
LIBS:siliconi
LIBS:opto
LIBS:atmel
LIBS:contrib
LIBS:valves
LIBS:esd
LIBS:stm32
LIBS:radio
LIBS:iface
LIBS:project-cache
EELAYER 25 0
EELAYER END
$Descr A4 11693 8268
encoding utf-8
Sheet 1 1
Title ""
Date ""
Rev ""
Comp ""
Comment1 ""
Comment2 ""
Comment3 ""
Comment4 ""
$EndDescr
$Comp
L R R1
U 1 1 5B5FF98D
P 6900 1800
F 0 "R1" V 6980 1800 50  0000 C CNN
F 1 "4K7" V 6900 1800 50  0000 C CNN
F 2 "Local:R_0603" V 6830 1800 50  0001 C CNN
F 3 "" H 6900 1800 50  0000 C CNN
	1    6900 1800
	-1   0    0    -1  
$EndComp
$Comp
L C C2
U 1 1 5B5FFC96
P 6300 1800
F 0 "C2" H 6325 1900 50  0000 L CNN
F 1 "10n" H 6325 1700 50  0000 L CNN
F 2 "Local:C_0603" H 6338 1650 50  0001 C CNN
F 3 "" H 6300 1800 50  0000 C CNN
	1    6300 1800
	1    0    0    -1  
$EndComp
$Comp
L D_x2_Serial_AKC D1
U 1 1 5B5FFD8B
P 6600 1550
F 0 "D1" V 6500 1400 50  0000 C CNN
F 1 "BAV99LT1G" H 6600 1650 50  0000 C CNN
F 2 "Local:SOT-23" H 6600 1550 50  0001 C CNN
F 3 "" H 6600 1550 50  0000 C CNN
	1    6600 1550
	0    -1   -1   0   
$EndComp
$Comp
L GND #PWR01
U 1 1 5B5FFEF7
P 6900 2050
F 0 "#PWR01" H 6900 1800 50  0001 C CNN
F 1 "GND" H 6900 1900 50  0000 C CNN
F 2 "" H 6900 2050 50  0000 C CNN
F 3 "" H 6900 2050 50  0000 C CNN
	1    6900 2050
	1    0    0    -1  
$EndComp
$Comp
L GND #PWR02
U 1 1 5B5FFF18
P 6600 2050
F 0 "#PWR02" H 6600 1800 50  0001 C CNN
F 1 "GND" H 6600 1900 50  0000 C CNN
F 2 "" H 6600 2050 50  0000 C CNN
F 3 "" H 6600 2050 50  0000 C CNN
	1    6600 2050
	1    0    0    -1  
$EndComp
$Comp
L GND #PWR03
U 1 1 5B5FFF36
P 6300 2050
F 0 "#PWR03" H 6300 1800 50  0001 C CNN
F 1 "GND" H 6300 1900 50  0000 C CNN
F 2 "" H 6300 2050 50  0000 C CNN
F 3 "" H 6300 2050 50  0000 C CNN
	1    6300 2050
	1    0    0    -1  
$EndComp
$Comp
L RJ12 J1
U 1 1 5B5FFF9A
P 7850 1450
F 0 "J1" H 8050 1950 50  0000 C CNN
F 1 "RJ12" H 7700 1950 50  0000 C CNN
F 2 "Local:RJ12-06P" H 7850 1450 50  0001 C CNN
F 3 "" H 7850 1450 50  0000 C CNN
	1    7850 1450
	0    1    1    0   
$EndComp
$Comp
L GND #PWR04
U 1 1 5B600016
P 8150 2050
F 0 "#PWR04" H 8150 1800 50  0001 C CNN
F 1 "GND" H 8150 1900 50  0000 C CNN
F 2 "" H 8150 2050 50  0000 C CNN
F 3 "" H 8150 2050 50  0000 C CNN
	1    8150 2050
	1    0    0    -1  
$EndComp
$Comp
L GND #PWR05
U 1 1 5B600049
P 8250 2050
F 0 "#PWR05" H 8250 1800 50  0001 C CNN
F 1 "GND" H 8250 1900 50  0000 C CNN
F 2 "" H 8250 2050 50  0000 C CNN
F 3 "" H 8250 2050 50  0000 C CNN
	1    8250 2050
	1    0    0    -1  
$EndComp
Text GLabel 7000 950  1    47   Input ~ 0
+3V3A
Text GLabel 6600 950  1    47   Input ~ 0
+3V3A
$Comp
L R R2
U 1 1 5B60021F
P 6300 1300
F 0 "R2" V 6380 1300 50  0000 C CNN
F 1 "1K" V 6300 1300 50  0000 C CNN
F 2 "Local:R_0603" V 6230 1300 50  0001 C CNN
F 3 "" H 6300 1300 50  0000 C CNN
	1    6300 1300
	-1   0    0    -1  
$EndComp
$Comp
L Ferrite_Bead L1
U 1 1 5B60056F
P 5300 1550
F 0 "L1" V 5150 1575 50  0000 C CNN
F 1 "470R" V 5450 1550 50  0000 C CNN
F 2 "Local:R_0603" V 5230 1550 50  0001 C CNN
F 3 "" H 5300 1550 50  0000 C CNN
	1    5300 1550
	0    1    1    0   
$EndComp
Text GLabel 6200 1550 0    47   Input ~ 0
TS1
Text GLabel 1400 5600 0    47   Input ~ 0
TS1
Text GLabel 5550 1550 2    47   Input ~ 0
+3V3A
Text GLabel 1400 5500 0    47   Input ~ 0
TS2
Text GLabel 1400 5400 0    47   Input ~ 0
TS3
Text GLabel 1400 5300 0    47   Input ~ 0
TS4
$Comp
L R R3
U 1 1 5B600C7F
P 6900 3600
F 0 "R3" V 6980 3600 50  0000 C CNN
F 1 "4K7" V 6900 3600 50  0000 C CNN
F 2 "Local:R_0603" V 6830 3600 50  0001 C CNN
F 3 "" H 6900 3600 50  0000 C CNN
	1    6900 3600
	-1   0    0    -1  
$EndComp
$Comp
L C C4
U 1 1 5B600C85
P 6300 3600
F 0 "C4" H 6325 3700 50  0000 L CNN
F 1 "10n" H 6325 3500 50  0000 L CNN
F 2 "Local:C_0603" H 6338 3450 50  0001 C CNN
F 3 "" H 6300 3600 50  0000 C CNN
	1    6300 3600
	1    0    0    -1  
$EndComp
$Comp
L D_x2_Serial_AKC D2
U 1 1 5B600C8B
P 6600 3350
F 0 "D2" V 6500 3200 50  0000 C CNN
F 1 "BAV99LT1G" H 6600 3450 50  0000 C CNN
F 2 "Local:SOT-23" H 6600 3350 50  0001 C CNN
F 3 "" H 6600 3350 50  0000 C CNN
	1    6600 3350
	0    -1   -1   0   
$EndComp
$Comp
L GND #PWR06
U 1 1 5B600C95
P 6900 3850
F 0 "#PWR06" H 6900 3600 50  0001 C CNN
F 1 "GND" H 6900 3700 50  0000 C CNN
F 2 "" H 6900 3850 50  0000 C CNN
F 3 "" H 6900 3850 50  0000 C CNN
	1    6900 3850
	1    0    0    -1  
$EndComp
$Comp
L GND #PWR07
U 1 1 5B600C9B
P 6600 3850
F 0 "#PWR07" H 6600 3600 50  0001 C CNN
F 1 "GND" H 6600 3700 50  0000 C CNN
F 2 "" H 6600 3850 50  0000 C CNN
F 3 "" H 6600 3850 50  0000 C CNN
	1    6600 3850
	1    0    0    -1  
$EndComp
$Comp
L GND #PWR08
U 1 1 5B600CA2
P 6300 3850
F 0 "#PWR08" H 6300 3600 50  0001 C CNN
F 1 "GND" H 6300 3700 50  0000 C CNN
F 2 "" H 6300 3850 50  0000 C CNN
F 3 "" H 6300 3850 50  0000 C CNN
	1    6300 3850
	1    0    0    -1  
$EndComp
$Comp
L RJ12 J2
U 1 1 5B600CAC
P 7850 3250
F 0 "J2" H 8050 3750 50  0000 C CNN
F 1 "RJ12" H 7700 3750 50  0000 C CNN
F 2 "Local:RJ12-06P" H 7850 3250 50  0001 C CNN
F 3 "" H 7850 3250 50  0000 C CNN
	1    7850 3250
	0    1    1    0   
$EndComp
$Comp
L GND #PWR09
U 1 1 5B600CB2
P 8150 3850
F 0 "#PWR09" H 8150 3600 50  0001 C CNN
F 1 "GND" H 8150 3700 50  0000 C CNN
F 2 "" H 8150 3850 50  0000 C CNN
F 3 "" H 8150 3850 50  0000 C CNN
	1    8150 3850
	1    0    0    -1  
$EndComp
$Comp
L GND #PWR010
U 1 1 5B600CB8
P 8250 3850
F 0 "#PWR010" H 8250 3600 50  0001 C CNN
F 1 "GND" H 8250 3700 50  0000 C CNN
F 2 "" H 8250 3850 50  0000 C CNN
F 3 "" H 8250 3850 50  0000 C CNN
	1    8250 3850
	1    0    0    -1  
$EndComp
Text GLabel 7000 2750 1    47   Input ~ 0
+3V3A
Text GLabel 6600 2750 1    47   Input ~ 0
+3V3A
$Comp
L R R4
U 1 1 5B600CC7
P 6300 3100
F 0 "R4" V 6380 3100 50  0000 C CNN
F 1 "1K" V 6300 3100 50  0000 C CNN
F 2 "Local:R_0603" V 6230 3100 50  0001 C CNN
F 3 "" H 6300 3100 50  0000 C CNN
	1    6300 3100
	-1   0    0    -1  
$EndComp
Text GLabel 6200 3350 0    47   Input ~ 0
TS2
$Comp
L R R5
U 1 1 5B601006
P 9600 1800
F 0 "R5" V 9680 1800 50  0000 C CNN
F 1 "4K7" V 9600 1800 50  0000 C CNN
F 2 "Local:R_0603" V 9530 1800 50  0001 C CNN
F 3 "" H 9600 1800 50  0000 C CNN
	1    9600 1800
	-1   0    0    -1  
$EndComp
$Comp
L C C6
U 1 1 5B60100C
P 9000 1800
F 0 "C6" H 9025 1900 50  0000 L CNN
F 1 "10n" H 9025 1700 50  0000 L CNN
F 2 "Local:C_0603" H 9038 1650 50  0001 C CNN
F 3 "" H 9000 1800 50  0000 C CNN
	1    9000 1800
	1    0    0    -1  
$EndComp
$Comp
L D_x2_Serial_AKC D3
U 1 1 5B601012
P 9300 1550
F 0 "D3" V 9200 1400 50  0000 C CNN
F 1 "BAV99LT1G" H 9300 1650 50  0000 C CNN
F 2 "Local:SOT-23" H 9300 1550 50  0001 C CNN
F 3 "" H 9300 1550 50  0000 C CNN
	1    9300 1550
	0    -1   -1   0   
$EndComp
$Comp
L GND #PWR011
U 1 1 5B60101C
P 9600 2050
F 0 "#PWR011" H 9600 1800 50  0001 C CNN
F 1 "GND" H 9600 1900 50  0000 C CNN
F 2 "" H 9600 2050 50  0000 C CNN
F 3 "" H 9600 2050 50  0000 C CNN
	1    9600 2050
	1    0    0    -1  
$EndComp
$Comp
L GND #PWR012
U 1 1 5B601022
P 9300 2050
F 0 "#PWR012" H 9300 1800 50  0001 C CNN
F 1 "GND" H 9300 1900 50  0000 C CNN
F 2 "" H 9300 2050 50  0000 C CNN
F 3 "" H 9300 2050 50  0000 C CNN
	1    9300 2050
	1    0    0    -1  
$EndComp
$Comp
L GND #PWR013
U 1 1 5B601029
P 9000 2050
F 0 "#PWR013" H 9000 1800 50  0001 C CNN
F 1 "GND" H 9000 1900 50  0000 C CNN
F 2 "" H 9000 2050 50  0000 C CNN
F 3 "" H 9000 2050 50  0000 C CNN
	1    9000 2050
	1    0    0    -1  
$EndComp
$Comp
L RJ12 J3
U 1 1 5B601033
P 10550 1450
F 0 "J3" H 10750 1950 50  0000 C CNN
F 1 "RJ12" H 10400 1950 50  0000 C CNN
F 2 "Local:RJ12-06P" H 10550 1450 50  0001 C CNN
F 3 "" H 10550 1450 50  0000 C CNN
	1    10550 1450
	0    1    1    0   
$EndComp
$Comp
L GND #PWR014
U 1 1 5B601039
P 10850 2050
F 0 "#PWR014" H 10850 1800 50  0001 C CNN
F 1 "GND" H 10850 1900 50  0000 C CNN
F 2 "" H 10850 2050 50  0000 C CNN
F 3 "" H 10850 2050 50  0000 C CNN
	1    10850 2050
	1    0    0    -1  
$EndComp
$Comp
L GND #PWR015
U 1 1 5B60103F
P 10950 2050
F 0 "#PWR015" H 10950 1800 50  0001 C CNN
F 1 "GND" H 10950 1900 50  0000 C CNN
F 2 "" H 10950 2050 50  0000 C CNN
F 3 "" H 10950 2050 50  0000 C CNN
	1    10950 2050
	1    0    0    -1  
$EndComp
Text GLabel 9700 950  1    47   Input ~ 0
+3V3A
Text GLabel 9300 950  1    47   Input ~ 0
+3V3A
$Comp
L R R6
U 1 1 5B60104E
P 9000 1300
F 0 "R6" V 9080 1300 50  0000 C CNN
F 1 "1K" V 9000 1300 50  0000 C CNN
F 2 "Local:R_0603" V 8930 1300 50  0001 C CNN
F 3 "" H 9000 1300 50  0000 C CNN
	1    9000 1300
	-1   0    0    -1  
$EndComp
Text GLabel 8900 1550 0    47   Input ~ 0
TS3
$Comp
L R R7
U 1 1 5B601059
P 9600 3600
F 0 "R7" V 9680 3600 50  0000 C CNN
F 1 "4K7" V 9600 3600 50  0000 C CNN
F 2 "Local:R_0603" V 9530 3600 50  0001 C CNN
F 3 "" H 9600 3600 50  0000 C CNN
	1    9600 3600
	-1   0    0    -1  
$EndComp
$Comp
L C C8
U 1 1 5B60105F
P 9000 3600
F 0 "C8" H 9025 3700 50  0000 L CNN
F 1 "10n" H 9025 3500 50  0000 L CNN
F 2 "Local:C_0603" H 9038 3450 50  0001 C CNN
F 3 "" H 9000 3600 50  0000 C CNN
	1    9000 3600
	1    0    0    -1  
$EndComp
$Comp
L D_x2_Serial_AKC D4
U 1 1 5B601065
P 9300 3350
F 0 "D4" V 9200 3200 50  0000 C CNN
F 1 "BAV99LT1G" H 9300 3450 50  0000 C CNN
F 2 "Local:SOT-23" H 9300 3350 50  0001 C CNN
F 3 "" H 9300 3350 50  0000 C CNN
	1    9300 3350
	0    -1   -1   0   
$EndComp
$Comp
L GND #PWR016
U 1 1 5B60106F
P 9600 3850
F 0 "#PWR016" H 9600 3600 50  0001 C CNN
F 1 "GND" H 9600 3700 50  0000 C CNN
F 2 "" H 9600 3850 50  0000 C CNN
F 3 "" H 9600 3850 50  0000 C CNN
	1    9600 3850
	1    0    0    -1  
$EndComp
$Comp
L GND #PWR017
U 1 1 5B601075
P 9300 3850
F 0 "#PWR017" H 9300 3600 50  0001 C CNN
F 1 "GND" H 9300 3700 50  0000 C CNN
F 2 "" H 9300 3850 50  0000 C CNN
F 3 "" H 9300 3850 50  0000 C CNN
	1    9300 3850
	1    0    0    -1  
$EndComp
$Comp
L GND #PWR018
U 1 1 5B60107C
P 9000 3850
F 0 "#PWR018" H 9000 3600 50  0001 C CNN
F 1 "GND" H 9000 3700 50  0000 C CNN
F 2 "" H 9000 3850 50  0000 C CNN
F 3 "" H 9000 3850 50  0000 C CNN
	1    9000 3850
	1    0    0    -1  
$EndComp
$Comp
L RJ12 J4
U 1 1 5B601086
P 10550 3250
F 0 "J4" H 10750 3750 50  0000 C CNN
F 1 "RJ12" H 10400 3750 50  0000 C CNN
F 2 "Local:RJ12-06P" H 10550 3250 50  0001 C CNN
F 3 "" H 10550 3250 50  0000 C CNN
	1    10550 3250
	0    1    1    0   
$EndComp
$Comp
L GND #PWR019
U 1 1 5B60108C
P 10850 3850
F 0 "#PWR019" H 10850 3600 50  0001 C CNN
F 1 "GND" H 10850 3700 50  0000 C CNN
F 2 "" H 10850 3850 50  0000 C CNN
F 3 "" H 10850 3850 50  0000 C CNN
	1    10850 3850
	1    0    0    -1  
$EndComp
$Comp
L GND #PWR020
U 1 1 5B601092
P 10950 3850
F 0 "#PWR020" H 10950 3600 50  0001 C CNN
F 1 "GND" H 10950 3700 50  0000 C CNN
F 2 "" H 10950 3850 50  0000 C CNN
F 3 "" H 10950 3850 50  0000 C CNN
	1    10950 3850
	1    0    0    -1  
$EndComp
Text GLabel 9700 2750 1    47   Input ~ 0
+3V3A
Text GLabel 9300 2750 1    47   Input ~ 0
+3V3A
$Comp
L R R8
U 1 1 5B6010A1
P 9000 3100
F 0 "R8" V 9080 3100 50  0000 C CNN
F 1 "1K" V 9000 3100 50  0000 C CNN
F 2 "Local:R_0603" V 8930 3100 50  0001 C CNN
F 3 "" H 9000 3100 50  0000 C CNN
	1    9000 3100
	-1   0    0    -1  
$EndComp
Text GLabel 8900 3350 0    47   Input ~ 0
TS4
$Comp
L C C5
U 1 1 5B601A06
P 9800 1800
F 0 "C5" H 9825 1900 50  0000 L CNN
F 1 "10n" H 9825 1700 50  0000 L CNN
F 2 "Local:C_0603" H 9838 1650 50  0001 C CNN
F 3 "" H 9800 1800 50  0000 C CNN
	1    9800 1800
	1    0    0    -1  
$EndComp
$Comp
L GND #PWR021
U 1 1 5B601A0C
P 9800 2050
F 0 "#PWR021" H 9800 1800 50  0001 C CNN
F 1 "GND" H 9800 1900 50  0000 C CNN
F 2 "" H 9800 2050 50  0000 C CNN
F 3 "" H 9800 2050 50  0000 C CNN
	1    9800 2050
	1    0    0    -1  
$EndComp
$Comp
L C C1
U 1 1 5B601DF4
P 7100 1800
F 0 "C1" H 7125 1900 50  0000 L CNN
F 1 "10n" H 7125 1700 50  0000 L CNN
F 2 "Local:C_0603" H 7138 1650 50  0001 C CNN
F 3 "" H 7100 1800 50  0000 C CNN
	1    7100 1800
	1    0    0    -1  
$EndComp
$Comp
L GND #PWR022
U 1 1 5B601E68
P 7100 2050
F 0 "#PWR022" H 7100 1800 50  0001 C CNN
F 1 "GND" H 7100 1900 50  0000 C CNN
F 2 "" H 7100 2050 50  0000 C CNN
F 3 "" H 7100 2050 50  0000 C CNN
	1    7100 2050
	1    0    0    -1  
$EndComp
$Comp
L C C3
U 1 1 5B60230E
P 7100 3600
F 0 "C3" H 7125 3700 50  0000 L CNN
F 1 "10n" H 7125 3500 50  0000 L CNN
F 2 "Local:C_0603" H 7138 3450 50  0001 C CNN
F 3 "" H 7100 3600 50  0000 C CNN
	1    7100 3600
	1    0    0    -1  
$EndComp
$Comp
L GND #PWR023
U 1 1 5B6023CC
P 7100 3850
F 0 "#PWR023" H 7100 3600 50  0001 C CNN
F 1 "GND" H 7100 3700 50  0000 C CNN
F 2 "" H 7100 3850 50  0000 C CNN
F 3 "" H 7100 3850 50  0000 C CNN
	1    7100 3850
	1    0    0    -1  
$EndComp
$Comp
L C C7
U 1 1 5B602B68
P 9800 3600
F 0 "C7" H 9825 3700 50  0000 L CNN
F 1 "10n" H 9825 3500 50  0000 L CNN
F 2 "Local:C_0603" H 9838 3450 50  0001 C CNN
F 3 "" H 9800 3600 50  0000 C CNN
	1    9800 3600
	1    0    0    -1  
$EndComp
$Comp
L GND #PWR024
U 1 1 5B602B6E
P 9800 3850
F 0 "#PWR024" H 9800 3600 50  0001 C CNN
F 1 "GND" H 9800 3700 50  0000 C CNN
F 2 "" H 9800 3850 50  0000 C CNN
F 3 "" H 9800 3850 50  0000 C CNN
	1    9800 3850
	1    0    0    -1  
$EndComp
$Comp
L GND #PWR025
U 1 1 5B601052
P 7300 2050
F 0 "#PWR025" H 7300 1800 50  0001 C CNN
F 1 "GND" H 7300 1900 50  0000 C CNN
F 2 "" H 7300 2050 50  0000 C CNN
F 3 "" H 7300 2050 50  0000 C CNN
	1    7300 2050
	1    0    0    -1  
$EndComp
$Comp
L GND #PWR026
U 1 1 5B6016D0
P 7300 3850
F 0 "#PWR026" H 7300 3600 50  0001 C CNN
F 1 "GND" H 7300 3700 50  0000 C CNN
F 2 "" H 7300 3850 50  0000 C CNN
F 3 "" H 7300 3850 50  0000 C CNN
	1    7300 3850
	1    0    0    -1  
$EndComp
$Comp
L GND #PWR027
U 1 1 5B6020A2
P 10000 3850
F 0 "#PWR027" H 10000 3600 50  0001 C CNN
F 1 "GND" H 10000 3700 50  0000 C CNN
F 2 "" H 10000 3850 50  0000 C CNN
F 3 "" H 10000 3850 50  0000 C CNN
	1    10000 3850
	1    0    0    -1  
$EndComp
$Comp
L GND #PWR028
U 1 1 5B6021DA
P 10000 2050
F 0 "#PWR028" H 10000 1800 50  0001 C CNN
F 1 "GND" H 10000 1900 50  0000 C CNN
F 2 "" H 10000 2050 50  0000 C CNN
F 3 "" H 10000 2050 50  0000 C CNN
	1    10000 2050
	1    0    0    -1  
$EndComp
Text GLabel 5600 3350 1    47   Input ~ 0
+3V3A
$Comp
L C C9
U 1 1 5B604D78
P 5600 3600
F 0 "C9" H 5625 3700 50  0000 L CNN
F 1 "100n" H 5625 3500 50  0000 L CNN
F 2 "Local:C_0603" H 5638 3450 50  0001 C CNN
F 3 "" H 5600 3600 50  0000 C CNN
	1    5600 3600
	1    0    0    -1  
$EndComp
$Comp
L GND #PWR029
U 1 1 5B605005
P 5600 3850
F 0 "#PWR029" H 5600 3600 50  0001 C CNN
F 1 "GND" H 5600 3700 50  0000 C CNN
F 2 "" H 5600 3850 50  0000 C CNN
F 3 "" H 5600 3850 50  0000 C CNN
	1    5600 3850
	1    0    0    -1  
$EndComp
$Comp
L D_Zener D5
U 1 1 5B6197A6
P 5200 3600
F 0 "D5" H 5200 3700 50  0000 C CNN
F 1 "3V9" H 5200 3500 50  0000 C CNN
F 2 "Local:D_MiniMELF" H 5200 3600 50  0001 C CNN
F 3 "" H 5200 3600 50  0000 C CNN
	1    5200 3600
	0    -1   1    0   
$EndComp
$Comp
L GND #PWR030
U 1 1 5B6199E3
P 5200 3850
F 0 "#PWR030" H 5200 3600 50  0001 C CNN
F 1 "GND" H 5200 3700 50  0000 C CNN
F 2 "" H 5200 3850 50  0000 C CNN
F 3 "" H 5200 3850 50  0000 C CNN
	1    5200 3850
	1    0    0    -1  
$EndComp
Text GLabel 5200 3350 1    47   Input ~ 0
+3V3A
$Comp
L STM32F030F4P6 U1
U 1 1 5B633983
P 3700 5900
F 0 "U1" H 3700 6700 60  0000 C CNN
F 1 "STM32F030F4P6" H 4700 5300 60  0000 C CNN
F 2 "Local:TSSOP-20_4.4x6.5mm_Pitch0.65mm" H 3900 5900 60  0001 C CNN
F 3 "" H 3900 5900 60  0000 C CNN
	1    3700 5900
	1    0    0    -1  
$EndComp
$Comp
L +3V3 #PWR031
U 1 1 5B633FC7
P 4950 1550
F 0 "#PWR031" H 4950 1400 50  0001 C CNN
F 1 "+3V3" V 4950 1750 50  0000 C CNN
F 2 "" H 4950 1550 50  0000 C CNN
F 3 "" H 4950 1550 50  0000 C CNN
	1    4950 1550
	0    -1   -1   0   
$EndComp
Text GLabel 1400 6400 0    47   Input ~ 0
SWDIO
Text GLabel 1400 6500 0    47   Input ~ 0
SWCLK
Text GLabel 1400 6200 0    47   Input ~ 0
WRT_RX
Text GLabel 1400 6300 0    47   Input ~ 0
WRT_TX
NoConn ~ 1400 5700
NoConn ~ 1400 5800
Text GLabel 1400 6000 0    47   Input ~ 0
SM1
Text GLabel 1400 5900 0    47   Input ~ 0
SM2
$Comp
L GND #PWR032
U 1 1 5B637740
P 6000 6600
F 0 "#PWR032" H 6000 6350 50  0001 C CNN
F 1 "GND" H 6000 6450 50  0000 C CNN
F 2 "" H 6000 6600 50  0000 C CNN
F 3 "" H 6000 6600 50  0000 C CNN
	1    6000 6600
	1    0    0    -1  
$EndComp
Text GLabel 6000 6300 2    47   Input ~ 0
+3V3A
$Comp
L +3V3 #PWR033
U 1 1 5B637DF9
P 6000 6200
F 0 "#PWR033" H 6000 6050 50  0001 C CNN
F 1 "+3V3" V 6000 6400 50  0000 C CNN
F 2 "" H 6000 6200 50  0000 C CNN
F 3 "" H 6000 6200 50  0000 C CNN
	1    6000 6200
	0    1    1    0   
$EndComp
Text GLabel 6000 5800 2    47   Input ~ 0
~RESET
NoConn ~ 6000 5600
NoConn ~ 6000 5500
Text GLabel 6000 6000 2    47   Input ~ 0
BOOT0
$Comp
L ESP-12 U2
U 1 1 5B638FBA
P 8900 5750
F 0 "U2" H 8900 6250 60  0000 C CNN
F 1 "ESP-12" H 8900 5250 60  0000 C CNN
F 2 "Local:ESP-12" H 8900 5750 60  0001 C CNN
F 3 "" H 8900 5750 60  0000 C CNN
	1    8900 5750
	1    0    0    -1  
$EndComp
Text GLabel 10100 5500 2    47   Input ~ 0
WRT_RX
Text GLabel 10100 5400 2    47   Input ~ 0
WRT_TX
$Comp
L +3V3 #PWR034
U 1 1 5B63A288
P 7700 6100
F 0 "#PWR034" H 7700 5950 50  0001 C CNN
F 1 "+3V3" V 7700 6300 50  0000 C CNN
F 2 "" H 7700 6100 50  0000 C CNN
F 3 "" H 7700 6100 50  0000 C CNN
	1    7700 6100
	0    -1   -1   0   
$EndComp
$Comp
L USB_OTG P1
U 1 1 5B63A382
P 3500 4300
F 0 "P1" H 3825 4175 50  0000 C CNN
F 1 "USB_OTG" H 3500 4500 50  0000 C CNN
F 2 "Local:USB_Mini-B" V 3450 4200 50  0001 C CNN
F 3 "" V 3450 4200 50  0000 C CNN
	1    3500 4300
	0    1    1    0   
$EndComp
NoConn ~ 3100 4400
NoConn ~ 3100 4300
NoConn ~ 3100 4200
$Comp
L LD1117S33CTR U3
U 1 1 5B63AEC6
P 1600 4150
F 0 "U3" H 1600 4400 50  0000 C CNN
F 1 "AMS1117S33" H 1900 3950 50  0000 C CNN
F 2 "Local:SOT-223-3Lead_TabPin2" H 1600 4250 50  0001 C CNN
F 3 "" H 1600 4150 50  0000 C CNN
	1    1600 4150
	1    0    0    -1  
$EndComp
$Comp
L GND #PWR035
U 1 1 5B63B997
P 3100 4600
F 0 "#PWR035" H 3100 4350 50  0001 C CNN
F 1 "GND" H 3100 4450 50  0000 C CNN
F 2 "" H 3100 4600 50  0000 C CNN
F 3 "" H 3100 4600 50  0000 C CNN
	1    3100 4600
	1    0    0    -1  
$EndComp
$Comp
L +5V #PWR036
U 1 1 5B63BC2F
P 3100 4000
F 0 "#PWR036" H 3100 3850 50  0001 C CNN
F 1 "+5V" H 3100 4140 50  0000 C CNN
F 2 "" H 3100 4000 50  0000 C CNN
F 3 "" H 3100 4000 50  0000 C CNN
	1    3100 4000
	1    0    0    -1  
$EndComp
$Comp
L GND #PWR037
U 1 1 5B63BE9C
P 1600 4500
F 0 "#PWR037" H 1600 4250 50  0001 C CNN
F 1 "GND" H 1600 4350 50  0000 C CNN
F 2 "" H 1600 4500 50  0000 C CNN
F 3 "" H 1600 4500 50  0000 C CNN
	1    1600 4500
	1    0    0    -1  
$EndComp
$Comp
L GND #PWR038
U 1 1 5B63BEE7
P 2400 4500
F 0 "#PWR038" H 2400 4250 50  0001 C CNN
F 1 "GND" H 2400 4350 50  0000 C CNN
F 2 "" H 2400 4500 50  0000 C CNN
F 3 "" H 2400 4500 50  0000 C CNN
	1    2400 4500
	1    0    0    -1  
$EndComp
NoConn ~ 3600 4800
$Comp
L +5V #PWR039
U 1 1 5B63C1CF
P 1100 4000
F 0 "#PWR039" H 1100 3850 50  0001 C CNN
F 1 "+5V" H 1100 4140 50  0000 C CNN
F 2 "" H 1100 4000 50  0000 C CNN
F 3 "" H 1100 4000 50  0000 C CNN
	1    1100 4000
	1    0    0    -1  
$EndComp
$Comp
L +3V3 #PWR040
U 1 1 5B63C2D0
P 2100 4000
F 0 "#PWR040" H 2100 3850 50  0001 C CNN
F 1 "+3V3" H 2100 4140 50  0000 C CNN
F 2 "" H 2100 4000 50  0000 C CNN
F 3 "" H 2100 4000 50  0000 C CNN
	1    2100 4000
	1    0    0    -1  
$EndComp
$Comp
L CP C20
U 1 1 5B63C522
P 800 4250
F 0 "C20" H 825 4350 50  0000 L CNN
F 1 "100u" H 825 4150 50  0000 L CNN
F 2 "Local:CP_Elec_6.3x7.7" H 838 4100 50  0001 C CNN
F 3 "" H 800 4250 50  0000 C CNN
	1    800  4250
	1    0    0    -1  
$EndComp
$Comp
L +5V #PWR041
U 1 1 5B63C6BB
P 800 4000
F 0 "#PWR041" H 800 3850 50  0001 C CNN
F 1 "+5V" H 800 4140 50  0000 C CNN
F 2 "" H 800 4000 50  0000 C CNN
F 3 "" H 800 4000 50  0000 C CNN
	1    800  4000
	1    0    0    -1  
$EndComp
$Comp
L GND #PWR042
U 1 1 5B63C704
P 800 4500
F 0 "#PWR042" H 800 4250 50  0001 C CNN
F 1 "GND" H 800 4350 50  0000 C CNN
F 2 "" H 800 4500 50  0000 C CNN
F 3 "" H 800 4500 50  0000 C CNN
	1    800  4500
	1    0    0    -1  
$EndComp
$Comp
L CP C13
U 1 1 5B63D784
P 2500 7250
F 0 "C13" H 2525 7350 50  0000 L CNN
F 1 "47u" H 2525 7150 50  0000 L CNN
F 2 "Local:C_1206" H 2538 7100 50  0001 C CNN
F 3 "" H 2500 7250 50  0000 C CNN
	1    2500 7250
	1    0    0    -1  
$EndComp
$Comp
L C C11
U 1 1 5B63DD1E
P 2900 7250
F 0 "C11" H 2925 7350 50  0000 L CNN
F 1 "100n" H 2925 7150 50  0000 L CNN
F 2 "Local:C_0603" H 2938 7100 50  0001 C CNN
F 3 "" H 2900 7250 50  0000 C CNN
	1    2900 7250
	1    0    0    -1  
$EndComp
$Comp
L GND #PWR043
U 1 1 5B63DD26
P 2900 7500
F 0 "#PWR043" H 2900 7250 50  0001 C CNN
F 1 "GND" H 2900 7350 50  0000 C CNN
F 2 "" H 2900 7500 50  0000 C CNN
F 3 "" H 2900 7500 50  0000 C CNN
	1    2900 7500
	1    0    0    -1  
$EndComp
$Comp
L +3V3 #PWR044
U 1 1 5B63DF08
P 2900 7000
F 0 "#PWR044" H 2900 6850 50  0001 C CNN
F 1 "+3V3" H 2900 7140 50  0000 C CNN
F 2 "" H 2900 7000 50  0000 C CNN
F 3 "" H 2900 7000 50  0000 C CNN
	1    2900 7000
	1    0    0    -1  
$EndComp
$Comp
L C C12
U 1 1 5B63E228
P 3200 7250
F 0 "C12" H 3225 7350 50  0000 L CNN
F 1 "100n" H 3225 7150 50  0000 L CNN
F 2 "Local:C_0603" H 3238 7100 50  0001 C CNN
F 3 "" H 3200 7250 50  0000 C CNN
	1    3200 7250
	1    0    0    -1  
$EndComp
$Comp
L GND #PWR045
U 1 1 5B63E230
P 3200 7500
F 0 "#PWR045" H 3200 7250 50  0001 C CNN
F 1 "GND" H 3200 7350 50  0000 C CNN
F 2 "" H 3200 7500 50  0000 C CNN
F 3 "" H 3200 7500 50  0000 C CNN
	1    3200 7500
	1    0    0    -1  
$EndComp
$Comp
L +3V3 #PWR046
U 1 1 5B63E236
P 3200 7000
F 0 "#PWR046" H 3200 6850 50  0001 C CNN
F 1 "+3V3" H 3200 7140 50  0000 C CNN
F 2 "" H 3200 7000 50  0000 C CNN
F 3 "" H 3200 7000 50  0000 C CNN
	1    3200 7000
	1    0    0    -1  
$EndComp
$Comp
L GND #PWR047
U 1 1 5B63E46C
P 10100 6200
F 0 "#PWR047" H 10100 5950 50  0001 C CNN
F 1 "GND" H 10100 6050 50  0000 C CNN
F 2 "" H 10100 6200 50  0000 C CNN
F 3 "" H 10100 6200 50  0000 C CNN
	1    10100 6200
	1    0    0    -1  
$EndComp
$Comp
L C C16
U 1 1 5B63E7DE
P 5500 7250
F 0 "C16" H 5525 7350 50  0000 L CNN
F 1 "100n" H 5525 7150 50  0000 L CNN
F 2 "Local:C_0603" H 5538 7100 50  0001 C CNN
F 3 "" H 5500 7250 50  0000 C CNN
	1    5500 7250
	1    0    0    -1  
$EndComp
$Comp
L GND #PWR048
U 1 1 5B63E7E6
P 5500 7500
F 0 "#PWR048" H 5500 7250 50  0001 C CNN
F 1 "GND" H 5500 7350 50  0000 C CNN
F 2 "" H 5500 7500 50  0000 C CNN
F 3 "" H 5500 7500 50  0000 C CNN
	1    5500 7500
	1    0    0    -1  
$EndComp
$Comp
L +3V3 #PWR049
U 1 1 5B63E7EC
P 5500 7000
F 0 "#PWR049" H 5500 6850 50  0001 C CNN
F 1 "+3V3" H 5500 7140 50  0000 C CNN
F 2 "" H 5500 7000 50  0000 C CNN
F 3 "" H 5500 7000 50  0000 C CNN
	1    5500 7000
	1    0    0    -1  
$EndComp
Text Notes 2350 7550 1    60   ~ 0
NEAR to VDD
Text Notes 3950 7550 1    60   ~ 0
NEAR to VDDA
$Comp
L C C14
U 1 1 5B63EDCC
P 4100 7250
F 0 "C14" H 4125 7350 50  0000 L CNN
F 1 "10n" H 4125 7150 50  0000 L CNN
F 2 "Local:C_0603" H 4138 7100 50  0001 C CNN
F 3 "" H 4100 7250 50  0000 C CNN
	1    4100 7250
	1    0    0    -1  
$EndComp
$Comp
L GND #PWR050
U 1 1 5B63EDD4
P 4100 7500
F 0 "#PWR050" H 4100 7250 50  0001 C CNN
F 1 "GND" H 4100 7350 50  0000 C CNN
F 2 "" H 4100 7500 50  0000 C CNN
F 3 "" H 4100 7500 50  0000 C CNN
	1    4100 7500
	1    0    0    -1  
$EndComp
$Comp
L GND #PWR051
U 1 1 5B63EE79
P 2500 7500
F 0 "#PWR051" H 2500 7250 50  0001 C CNN
F 1 "GND" H 2500 7350 50  0000 C CNN
F 2 "" H 2500 7500 50  0000 C CNN
F 3 "" H 2500 7500 50  0000 C CNN
	1    2500 7500
	1    0    0    -1  
$EndComp
$Comp
L +3V3 #PWR052
U 1 1 5B63EF1A
P 2500 7000
F 0 "#PWR052" H 2500 6850 50  0001 C CNN
F 1 "+3V3" H 2500 7140 50  0000 C CNN
F 2 "" H 2500 7000 50  0000 C CNN
F 3 "" H 2500 7000 50  0000 C CNN
	1    2500 7000
	1    0    0    -1  
$EndComp
$Comp
L CP C15
U 1 1 5B63F02C
P 4400 7250
F 0 "C15" H 4425 7350 50  0000 L CNN
F 1 "1u" H 4425 7150 50  0000 L CNN
F 2 "Local:C_0805" H 4438 7100 50  0001 C CNN
F 3 "" H 4400 7250 50  0000 C CNN
	1    4400 7250
	1    0    0    -1  
$EndComp
$Comp
L GND #PWR053
U 1 1 5B63F033
P 4400 7500
F 0 "#PWR053" H 4400 7250 50  0001 C CNN
F 1 "GND" H 4400 7350 50  0000 C CNN
F 2 "" H 4400 7500 50  0000 C CNN
F 3 "" H 4400 7500 50  0000 C CNN
	1    4400 7500
	1    0    0    -1  
$EndComp
$Comp
L CP C17
U 1 1 5B63F179
P 5200 7250
F 0 "C17" H 5225 7350 50  0000 L CNN
F 1 "47u" H 5225 7150 50  0000 L CNN
F 2 "Local:C_0805" H 5238 7100 50  0001 C CNN
F 3 "" H 5200 7250 50  0000 C CNN
	1    5200 7250
	1    0    0    -1  
$EndComp
$Comp
L GND #PWR054
U 1 1 5B63F180
P 5200 7500
F 0 "#PWR054" H 5200 7250 50  0001 C CNN
F 1 "GND" H 5200 7350 50  0000 C CNN
F 2 "" H 5200 7500 50  0000 C CNN
F 3 "" H 5200 7500 50  0000 C CNN
	1    5200 7500
	1    0    0    -1  
$EndComp
$Comp
L +3V3 #PWR055
U 1 1 5B63F187
P 5200 7000
F 0 "#PWR055" H 5200 6850 50  0001 C CNN
F 1 "+3V3" H 5200 7140 50  0000 C CNN
F 2 "" H 5200 7000 50  0000 C CNN
F 3 "" H 5200 7000 50  0000 C CNN
	1    5200 7000
	1    0    0    -1  
$EndComp
Text Notes 5050 7650 1    60   ~ 0
NEAR to ESP-12
Text GLabel 1300 7000 1    47   Input ~ 0
~RESET
$Comp
L C C10
U 1 1 5B63FD9F
P 1300 7250
F 0 "C10" H 1325 7350 50  0000 L CNN
F 1 "100n" H 1325 7150 50  0000 L CNN
F 2 "Local:C_0603" H 1338 7100 50  0001 C CNN
F 3 "" H 1300 7250 50  0000 C CNN
	1    1300 7250
	1    0    0    -1  
$EndComp
$Comp
L GND #PWR056
U 1 1 5B63FDA7
P 1300 7500
F 0 "#PWR056" H 1300 7250 50  0001 C CNN
F 1 "GND" H 1300 7350 50  0000 C CNN
F 2 "" H 1300 7500 50  0000 C CNN
F 3 "" H 1300 7500 50  0000 C CNN
	1    1300 7500
	1    0    0    -1  
$EndComp
$Comp
L R R10
U 1 1 5B640240
P 1000 7250
F 0 "R10" V 1080 7250 50  0000 C CNN
F 1 "10K" V 1000 7250 50  0000 C CNN
F 2 "Local:R_0603" V 930 7250 50  0001 C CNN
F 3 "" H 1000 7250 50  0000 C CNN
	1    1000 7250
	-1   0    0    -1  
$EndComp
$Comp
L GND #PWR057
U 1 1 5B640646
P 1000 7500
F 0 "#PWR057" H 1000 7250 50  0001 C CNN
F 1 "GND" H 1000 7350 50  0000 C CNN
F 2 "" H 1000 7500 50  0000 C CNN
F 3 "" H 1000 7500 50  0000 C CNN
	1    1000 7500
	1    0    0    -1  
$EndComp
Text GLabel 1000 7000 1    47   Input ~ 0
BOOT0
$Comp
L SRV05-4 U4
U 1 1 5B640E0C
P 2200 2600
F 0 "U4" H 2000 3050 50  0000 R CNN
F 1 "SRV05-4" H 2300 3050 50  0000 L CNN
F 2 "Local:SOT-23-6" H 2200 2600 50  0001 C CNN
F 3 "" H 2200 2600 50  0001 C CNN
	1    2200 2600
	1    0    0    -1  
$EndComp
Text GLabel 1600 2500 0    47   Input ~ 0
SM1
Text GLabel 1600 2700 0    47   Input ~ 0
SM2
$Comp
L GND #PWR058
U 1 1 5B641E34
P 2200 3200
F 0 "#PWR058" H 2200 2950 50  0001 C CNN
F 1 "GND" H 2200 3050 50  0000 C CNN
F 2 "" H 2200 3200 50  0000 C CNN
F 3 "" H 2200 3200 50  0000 C CNN
	1    2200 3200
	1    0    0    -1  
$EndComp
$Comp
L +3V3 #PWR059
U 1 1 5B642806
P 2200 2000
F 0 "#PWR059" H 2200 1850 50  0001 C CNN
F 1 "+3V3" H 2200 2140 50  0000 C CNN
F 2 "" H 2200 2000 50  0000 C CNN
F 3 "" H 2200 2000 50  0000 C CNN
	1    2200 2000
	1    0    0    -1  
$EndComp
$Comp
L CONN_01X02 P2
U 1 1 5B642AEA
P 1900 1150
F 0 "P2" H 1900 1300 50  0000 C CNN
F 1 "DRV_PWR" V 2000 1150 50  0000 C CNN
F 2 "Local:DG301-5.0-02P" H 1900 1150 50  0001 C CNN
F 3 "" H 1900 1150 50  0000 C CNN
	1    1900 1150
	1    0    0    1   
$EndComp
$Comp
L CONN_01X02 P3
U 1 1 5B642CFF
P 2700 1150
F 0 "P3" H 2700 1300 50  0000 C CNN
F 1 "DRV_CTL" V 2800 1150 50  0000 C CNN
F 2 "Local:DG301-5.0-02P" H 2700 1150 50  0001 C CNN
F 3 "" H 2700 1150 50  0000 C CNN
	1    2700 1150
	1    0    0    1   
$EndComp
$Comp
L +5V #PWR060
U 1 1 5B643270
P 1600 1000
F 0 "#PWR060" H 1600 850 50  0001 C CNN
F 1 "+5V" H 1600 1140 50  0000 C CNN
F 2 "" H 1600 1000 50  0000 C CNN
F 3 "" H 1600 1000 50  0000 C CNN
	1    1600 1000
	1    0    0    -1  
$EndComp
$Comp
L GND #PWR061
U 1 1 5B64353B
P 1600 1300
F 0 "#PWR061" H 1600 1050 50  0001 C CNN
F 1 "GND" H 1600 1150 50  0000 C CNN
F 2 "" H 1600 1300 50  0000 C CNN
F 3 "" H 1600 1300 50  0000 C CNN
	1    1600 1300
	1    0    0    -1  
$EndComp
Wire Wire Line
	6800 1550 7400 1550
Wire Wire Line
	6900 1050 6900 1650
Connection ~ 6900 1550
Wire Wire Line
	6900 1950 6900 2050
Wire Wire Line
	6600 1850 6600 2050
Wire Wire Line
	6900 1050 6300 1050
Wire Wire Line
	6600 1250 6600 950 
Wire Wire Line
	7000 950  7000 1450
Wire Wire Line
	7000 1450 7400 1450
Wire Wire Line
	8150 1950 8150 2050
Wire Wire Line
	8250 1950 8250 2050
Wire Wire Line
	6300 1950 6300 2050
Wire Wire Line
	6300 1050 6300 1150
Wire Wire Line
	6300 1450 6300 1650
Wire Wire Line
	6300 1550 6200 1550
Connection ~ 6300 1550
Wire Wire Line
	4950 1550 5150 1550
Wire Wire Line
	1400 5600 1500 5600
Wire Wire Line
	1400 5500 1500 5500
Wire Wire Line
	1400 5400 1500 5400
Wire Wire Line
	5450 1550 5550 1550
Wire Wire Line
	1500 5300 1400 5300
Wire Wire Line
	6800 3350 7400 3350
Wire Wire Line
	6900 2850 6900 3450
Connection ~ 6900 3350
Wire Wire Line
	6900 3750 6900 3850
Wire Wire Line
	6600 3650 6600 3850
Wire Wire Line
	6900 2850 6300 2850
Wire Wire Line
	6600 3050 6600 2750
Wire Wire Line
	7000 2750 7000 3250
Wire Wire Line
	7000 3250 7400 3250
Wire Wire Line
	8150 3750 8150 3850
Wire Wire Line
	8250 3750 8250 3850
Wire Wire Line
	6300 3750 6300 3850
Wire Wire Line
	6300 2850 6300 2950
Wire Wire Line
	6300 3250 6300 3450
Wire Wire Line
	6300 3350 6200 3350
Connection ~ 6300 3350
Wire Wire Line
	9500 1550 10100 1550
Wire Wire Line
	9600 1050 9600 1650
Connection ~ 9600 1550
Wire Wire Line
	9600 1950 9600 2050
Wire Wire Line
	9300 1850 9300 2050
Wire Wire Line
	9600 1050 9000 1050
Wire Wire Line
	9300 1250 9300 950 
Wire Wire Line
	9700 950  9700 1450
Wire Wire Line
	9700 1450 10100 1450
Wire Wire Line
	10850 1950 10850 2050
Wire Wire Line
	10950 1950 10950 2050
Wire Wire Line
	9000 1950 9000 2050
Wire Wire Line
	9000 1050 9000 1150
Wire Wire Line
	9000 1450 9000 1650
Wire Wire Line
	9000 1550 8900 1550
Connection ~ 9000 1550
Wire Wire Line
	9500 3350 10100 3350
Wire Wire Line
	9600 2850 9600 3450
Connection ~ 9600 3350
Wire Wire Line
	9600 3750 9600 3850
Wire Wire Line
	9300 3650 9300 3850
Wire Wire Line
	9600 2850 9000 2850
Wire Wire Line
	9300 3050 9300 2750
Wire Wire Line
	9700 2750 9700 3250
Wire Wire Line
	9700 3250 10100 3250
Wire Wire Line
	10850 3750 10850 3850
Wire Wire Line
	10950 3750 10950 3850
Wire Wire Line
	9000 3750 9000 3850
Wire Wire Line
	9000 2850 9000 2950
Wire Wire Line
	9000 3250 9000 3450
Wire Wire Line
	9000 3350 8900 3350
Connection ~ 9000 3350
Wire Wire Line
	9800 1950 9800 2050
Wire Wire Line
	9800 1550 9800 1650
Connection ~ 9800 1550
Wire Wire Line
	7100 2050 7100 1950
Wire Wire Line
	7100 1550 7100 1650
Connection ~ 7100 1550
Wire Wire Line
	7100 3750 7100 3850
Wire Wire Line
	7100 3350 7100 3450
Connection ~ 7100 3350
Wire Wire Line
	9800 3750 9800 3850
Wire Wire Line
	9800 3350 9800 3450
Connection ~ 9800 3350
Wire Wire Line
	7400 1250 7300 1250
Wire Wire Line
	7300 1250 7300 2050
Wire Wire Line
	7300 1350 7400 1350
Wire Wire Line
	7300 1650 7400 1650
Wire Wire Line
	7300 1750 7400 1750
Connection ~ 7300 1750
Connection ~ 7300 1350
Connection ~ 7300 1650
Wire Wire Line
	7400 3050 7300 3050
Wire Wire Line
	7300 3050 7300 3850
Wire Wire Line
	7300 3550 7400 3550
Connection ~ 7300 3550
Wire Wire Line
	7400 3450 7300 3450
Connection ~ 7300 3450
Wire Wire Line
	7400 3150 7300 3150
Connection ~ 7300 3150
Wire Wire Line
	10100 1250 10000 1250
Wire Wire Line
	10000 1250 10000 2050
Wire Wire Line
	10000 1350 10100 1350
Wire Wire Line
	10000 1650 10100 1650
Wire Wire Line
	10000 1750 10100 1750
Connection ~ 10000 1750
Connection ~ 10000 1650
Connection ~ 10000 1350
Wire Wire Line
	10100 3050 10000 3050
Wire Wire Line
	10000 3050 10000 3850
Wire Wire Line
	10000 3150 10100 3150
Wire Wire Line
	10000 3450 10100 3450
Wire Wire Line
	10000 3550 10100 3550
Connection ~ 10000 3550
Connection ~ 10000 3150
Connection ~ 10000 3450
Wire Wire Line
	5600 3450 5600 3350
Wire Wire Line
	5600 3750 5600 3850
Wire Wire Line
	5200 3750 5200 3850
Wire Wire Line
	5200 3350 5200 3450
Wire Wire Line
	1500 6200 1400 6200
Wire Wire Line
	1500 6300 1400 6300
Wire Wire Line
	1500 6400 1400 6400
Wire Wire Line
	1500 6500 1400 6500
Wire Wire Line
	1500 5900 1400 5900
Wire Wire Line
	1500 6000 1400 6000
Wire Wire Line
	1500 5700 1400 5700
Wire Wire Line
	1500 5800 1400 5800
Wire Wire Line
	5900 5300 6000 5300
Wire Wire Line
	5900 5500 6000 5500
Wire Wire Line
	5900 5600 6000 5600
Wire Wire Line
	5900 5800 6000 5800
Wire Wire Line
	5900 6000 6000 6000
Wire Wire Line
	5900 6200 6000 6200
Wire Wire Line
	5900 6300 6000 6300
Wire Wire Line
	5900 6500 6000 6500
Wire Wire Line
	6000 6500 6000 6600
Wire Wire Line
	10000 5400 10100 5400
Wire Wire Line
	10000 5500 10100 5500
Wire Wire Line
	10000 6100 10100 6100
Wire Wire Line
	7800 6100 7700 6100
Wire Wire Line
	3200 4500 3100 4500
Wire Wire Line
	3200 4100 3100 4100
Wire Wire Line
	3200 4200 3100 4200
Wire Wire Line
	3200 4300 3100 4300
Wire Wire Line
	3200 4400 3100 4400
Wire Wire Line
	3100 4500 3100 4600
Wire Wire Line
	3100 4100 3100 4000
Wire Wire Line
	1600 4400 1600 4500
Wire Wire Line
	3600 4700 3600 4800
Wire Wire Line
	1200 4100 1100 4100
Wire Wire Line
	1100 4100 1100 4000
Wire Wire Line
	2000 4100 2100 4100
Wire Wire Line
	2100 4100 2100 4000
Wire Wire Line
	800  4100 800  4000
Wire Wire Line
	800  4400 800  4500
Wire Wire Line
	2900 7100 2900 7000
Wire Wire Line
	2900 7400 2900 7500
Wire Wire Line
	3200 7100 3200 7000
Wire Wire Line
	3200 7400 3200 7500
Wire Wire Line
	5500 7100 5500 7000
Wire Wire Line
	5500 7400 5500 7500
Wire Wire Line
	4100 7100 4100 7000
Wire Wire Line
	4100 7400 4100 7500
Wire Wire Line
	2500 7400 2500 7500
Wire Wire Line
	2500 7100 2500 7000
Wire Wire Line
	4400 7400 4400 7500
Wire Wire Line
	4400 7100 4400 7000
Wire Wire Line
	5200 7400 5200 7500
Wire Wire Line
	5200 7100 5200 7000
Wire Wire Line
	1300 7100 1300 7000
Wire Wire Line
	1300 7400 1300 7500
Wire Wire Line
	1000 7400 1000 7500
Wire Wire Line
	1000 7100 1000 7000
Wire Wire Line
	1600 2500 1700 2500
Wire Wire Line
	1600 2700 1700 2700
Wire Wire Line
	2700 2500 2800 2500
Wire Wire Line
	2800 2700 2700 2700
Wire Wire Line
	2200 3100 2200 3200
Wire Wire Line
	2200 2100 2200 2000
Wire Wire Line
	1700 1200 1600 1200
Wire Wire Line
	1600 1200 1600 1300
Wire Wire Line
	1700 1100 1600 1100
Wire Wire Line
	1600 1100 1600 1000
Wire Wire Line
	2500 1200 2400 1200
Wire Wire Line
	2500 1100 2400 1100
Text GLabel 2400 1200 0    47   Input ~ 0
SM1
Text GLabel 2400 1100 0    47   Input ~ 0
SM2
$Comp
L CP C23
U 1 1 5B64455D
P 1200 1200
F 0 "C23" H 1225 1300 50  0000 L CNN
F 1 "100u" H 1225 1100 50  0000 L CNN
F 2 "Local:CP_Elec_6.3x7.7" H 1238 1050 50  0001 C CNN
F 3 "" H 1200 1200 50  0000 C CNN
	1    1200 1200
	1    0    0    -1  
$EndComp
$Comp
L +5V #PWR062
U 1 1 5B644563
P 1200 950
F 0 "#PWR062" H 1200 800 50  0001 C CNN
F 1 "+5V" H 1200 1090 50  0000 C CNN
F 2 "" H 1200 950 50  0000 C CNN
F 3 "" H 1200 950 50  0000 C CNN
	1    1200 950 
	1    0    0    -1  
$EndComp
$Comp
L GND #PWR063
U 1 1 5B644569
P 1200 1450
F 0 "#PWR063" H 1200 1200 50  0001 C CNN
F 1 "GND" H 1200 1300 50  0000 C CNN
F 2 "" H 1200 1450 50  0000 C CNN
F 3 "" H 1200 1450 50  0000 C CNN
	1    1200 1450
	1    0    0    -1  
$EndComp
Wire Wire Line
	1200 1050 1200 950 
Wire Wire Line
	1200 1350 1200 1450
$Comp
L CP C22
U 1 1 5B644637
P 800 1200
F 0 "C22" H 825 1300 50  0000 L CNN
F 1 "100u" H 825 1100 50  0000 L CNN
F 2 "Local:CP_Elec_6.3x7.7" H 838 1050 50  0001 C CNN
F 3 "" H 800 1200 50  0000 C CNN
	1    800  1200
	1    0    0    -1  
$EndComp
$Comp
L +5V #PWR064
U 1 1 5B64463D
P 800 950
F 0 "#PWR064" H 800 800 50  0001 C CNN
F 1 "+5V" H 800 1090 50  0000 C CNN
F 2 "" H 800 950 50  0000 C CNN
F 3 "" H 800 950 50  0000 C CNN
	1    800  950 
	1    0    0    -1  
$EndComp
$Comp
L GND #PWR065
U 1 1 5B644643
P 800 1450
F 0 "#PWR065" H 800 1200 50  0001 C CNN
F 1 "GND" H 800 1300 50  0000 C CNN
F 2 "" H 800 1450 50  0000 C CNN
F 3 "" H 800 1450 50  0000 C CNN
	1    800  1450
	1    0    0    -1  
$EndComp
Wire Wire Line
	800  1050 800  950 
Wire Wire Line
	800  1350 800  1450
Wire Wire Line
	7800 5400 7700 5400
Wire Wire Line
	7800 5500 7700 5500
Wire Wire Line
	7800 5600 7700 5600
Wire Wire Line
	7800 5700 7700 5700
Wire Wire Line
	7800 5800 7700 5800
Wire Wire Line
	7800 5900 7700 5900
Wire Wire Line
	7800 6000 7700 6000
Wire Wire Line
	10000 5600 10100 5600
Wire Wire Line
	10000 5700 10100 5700
Wire Wire Line
	10000 5800 10100 5800
Wire Wire Line
	10000 5900 10100 5900
Wire Wire Line
	10000 6000 10100 6000
$Comp
L SWD JP1
U 1 1 5B6462D3
P 4800 4550
F 0 "JP1" H 4800 4850 60  0000 C CNN
F 1 "SWD" H 4800 4250 60  0000 C CNN
F 2 "Local:Pin_Header_Straight_1x04_Pitch2.00mm" H 4600 4550 60  0001 C CNN
F 3 "" H 4600 4550 60  0000 C CNN
	1    4800 4550
	1    0    0    -1  
$EndComp
Wire Wire Line
	4400 4700 4300 4700
Wire Wire Line
	4300 4700 4300 4800
Wire Wire Line
	4200 4600 4400 4600
Wire Wire Line
	4400 4500 4300 4500
Wire Wire Line
	4300 4500 4300 4300
Wire Wire Line
	4400 4400 4200 4400
Text GLabel 4200 4400 0    47   Input ~ 0
SWDIO
Text GLabel 4200 4600 0    47   Input ~ 0
SWCLK
$Comp
L GND #PWR066
U 1 1 5B64727E
P 4300 4800
F 0 "#PWR066" H 4300 4550 50  0001 C CNN
F 1 "GND" H 4300 4650 50  0000 C CNN
F 2 "" H 4300 4800 50  0000 C CNN
F 3 "" H 4300 4800 50  0000 C CNN
	1    4300 4800
	1    0    0    -1  
$EndComp
$Comp
L +3V3 #PWR067
U 1 1 5B647345
P 4300 4300
F 0 "#PWR067" H 4300 4150 50  0001 C CNN
F 1 "+3V3" H 4300 4440 50  0000 C CNN
F 2 "" H 4300 4300 50  0000 C CNN
F 3 "" H 4300 4300 50  0000 C CNN
	1    4300 4300
	1    0    0    -1  
$EndComp
$Comp
L +3V3 #PWR068
U 1 1 5B64827B
P 8000 4800
F 0 "#PWR068" H 8000 4650 50  0001 C CNN
F 1 "+3V3" V 8000 5000 50  0000 C CNN
F 2 "" H 8000 4800 50  0000 C CNN
F 3 "" H 8000 4800 50  0000 C CNN
	1    8000 4800
	0    -1   -1   0   
$EndComp
NoConn ~ 7700 6000
NoConn ~ 7700 5900
NoConn ~ 7700 5700
NoConn ~ 10100 5600
NoConn ~ 10100 5700
$Comp
L R R11
U 1 1 5B6490C8
P 8250 4800
F 0 "R11" V 8330 4800 50  0000 C CNN
F 1 "10K" V 8250 4800 50  0000 C CNN
F 2 "Local:R_0603" V 8180 4800 50  0001 C CNN
F 3 "" H 8250 4800 50  0000 C CNN
	1    8250 4800
	0    1    -1   0   
$EndComp
Wire Wire Line
	8100 4800 8000 4800
$Comp
L R R13
U 1 1 5B649882
P 9750 4800
F 0 "R13" V 9830 4800 50  0000 C CNN
F 1 "10K" V 9750 4800 50  0000 C CNN
F 2 "Local:R_0603" V 9680 4800 50  0001 C CNN
F 3 "" H 9750 4800 50  0000 C CNN
	1    9750 4800
	0    1    -1   0   
$EndComp
Wire Wire Line
	10100 6100 10100 6200
Wire Wire Line
	9900 4800 10000 4800
Wire Wire Line
	10000 4800 10000 4900
$Comp
L GND #PWR069
U 1 1 5B649DA3
P 10000 4900
F 0 "#PWR069" H 10000 4650 50  0001 C CNN
F 1 "GND" H 10000 4750 50  0000 C CNN
F 2 "" H 10000 4900 50  0000 C CNN
F 3 "" H 10000 4900 50  0000 C CNN
	1    10000 4900
	1    0    0    -1  
$EndComp
Text GLabel 7700 5600 0    47   Input ~ 0
WRT_EN
NoConn ~ 7700 5400
NoConn ~ 7700 5500
Text GLabel 8500 4800 2    47   Input ~ 0
WRT_EN
Wire Wire Line
	8500 4800 8400 4800
NoConn ~ 10100 5900
Text GLabel 9500 4800 0    47   Input ~ 0
WRT_BOOT
Wire Wire Line
	9600 4800 9500 4800
Text GLabel 10100 6000 2    47   Input ~ 0
WRT_BOOT
Text GLabel 10100 5800 2    47   Input ~ 0
~WRT_FLASH
Text GLabel 8500 5000 2    47   Input ~ 0
~WRT_FLASH
$Comp
L +3V3 #PWR070
U 1 1 5B64B679
P 8000 5000
F 0 "#PWR070" H 8000 4850 50  0001 C CNN
F 1 "+3V3" V 8000 5200 50  0000 C CNN
F 2 "" H 8000 5000 50  0000 C CNN
F 3 "" H 8000 5000 50  0000 C CNN
	1    8000 5000
	0    -1   -1   0   
$EndComp
$Comp
L R R12
U 1 1 5B64B67F
P 8250 5000
F 0 "R12" V 8330 5000 50  0000 C CNN
F 1 "10K" V 8250 5000 50  0000 C CNN
F 2 "Local:R_0603" V 8180 5000 50  0001 C CNN
F 3 "" H 8250 5000 50  0000 C CNN
	1    8250 5000
	0    1    -1   0   
$EndComp
Wire Wire Line
	8100 5000 8000 5000
Wire Wire Line
	8500 5000 8400 5000
$Comp
L UART JP2
U 1 1 5B64BA31
P 6900 4650
F 0 "JP2" H 6900 4950 60  0000 C CNN
F 1 "UART" H 6900 4350 60  0000 C CNN
F 2 "Local:Pin_Header_Straight_1x04_Pitch2.00mm" H 6700 4650 60  0001 C CNN
F 3 "" H 6700 4650 60  0000 C CNN
	1    6900 4650
	1    0    0    -1  
$EndComp
Text GLabel 6300 4700 0    47   Input ~ 0
WRT_TX
Wire Wire Line
	6500 4800 6400 4800
Wire Wire Line
	6400 4800 6400 4900
Wire Wire Line
	6500 4600 6400 4600
Wire Wire Line
	6400 4600 6400 4400
$Comp
L +3V3 #PWR071
U 1 1 5B64C2B3
P 6400 4400
F 0 "#PWR071" H 6400 4250 50  0001 C CNN
F 1 "+3V3" H 6400 4540 50  0000 C CNN
F 2 "" H 6400 4400 50  0000 C CNN
F 3 "" H 6400 4400 50  0000 C CNN
	1    6400 4400
	1    0    0    -1  
$EndComp
Wire Wire Line
	6500 4700 6300 4700
Wire Wire Line
	6500 4500 6300 4500
Text GLabel 6300 4500 0    47   Input ~ 0
WRT_RX
$Comp
L GND #PWR072
U 1 1 5B64CAB1
P 6400 4900
F 0 "#PWR072" H 6400 4650 50  0001 C CNN
F 1 "GND" H 6400 4750 50  0000 C CNN
F 2 "" H 6400 4900 50  0000 C CNN
F 3 "" H 6400 4900 50  0000 C CNN
	1    6400 4900
	1    0    0    -1  
$EndComp
$Comp
L CONN_01X02 JP3
U 1 1 5B64D3E6
P 11000 6050
F 0 "JP3" H 11000 6200 50  0000 C CNN
F 1 "FLASH/RESET" V 11100 6050 50  0000 C CNN
F 2 "Local:Pin_Header_Straight_1x02_Pitch2.54mm" H 11000 6050 50  0001 C CNN
F 3 "" H 11000 6050 50  0000 C CNN
	1    11000 6050
	1    0    0    -1  
$EndComp
$Comp
L GND #PWR073
U 1 1 5B64D858
P 10700 6200
F 0 "#PWR073" H 10700 5950 50  0001 C CNN
F 1 "GND" H 10700 6050 50  0000 C CNN
F 2 "" H 10700 6200 50  0000 C CNN
F 3 "" H 10700 6200 50  0000 C CNN
	1    10700 6200
	1    0    0    -1  
$EndComp
Wire Wire Line
	10800 6100 10700 6100
Wire Wire Line
	10700 6100 10700 6200
Wire Wire Line
	10800 6000 10700 6000
Wire Wire Line
	10700 6000 10700 5900
Text GLabel 10700 5900 1    47   Input ~ 0
~WRT_FLASH
Text GLabel 7700 5800 0    47   Input ~ 0
WRT_RDY
Text GLabel 6000 5300 2    47   Input ~ 0
WRT_RDY
$Comp
L CP C21
U 1 1 5B637EA1
P 2400 4250
F 0 "C21" H 2425 4350 50  0000 L CNN
F 1 "100u" H 2425 4150 50  0000 L CNN
F 2 "Local:CP_Elec_6.3x7.7" H 2438 4100 50  0001 C CNN
F 3 "" H 2400 4250 50  0000 C CNN
	1    2400 4250
	1    0    0    -1  
$EndComp
Wire Wire Line
	2400 4100 2400 4000
$Comp
L +3V3 #PWR074
U 1 1 5B6382E3
P 2400 4000
F 0 "#PWR074" H 2400 3850 50  0001 C CNN
F 1 "+3V3" H 2400 4140 50  0000 C CNN
F 2 "" H 2400 4000 50  0000 C CNN
F 3 "" H 2400 4000 50  0000 C CNN
	1    2400 4000
	1    0    0    -1  
$EndComp
Wire Wire Line
	2400 4400 2400 4500
$Comp
L GND #PWR075
U 1 1 5B63A04F
P 7700 4400
F 0 "#PWR075" H 7700 4150 50  0001 C CNN
F 1 "GND" H 7700 4250 50  0000 C CNN
F 2 "" H 7700 4400 50  0000 C CNN
F 3 "" H 7700 4400 50  0000 C CNN
	1    7700 4400
	1    0    0    -1  
$EndComp
Wire Wire Line
	7700 4400 7700 4300
$Comp
L PWR_FLAG #FLG076
U 1 1 5B63A1E4
P 7700 4300
F 0 "#FLG076" H 7700 4395 50  0001 C CNN
F 1 "PWR_FLAG" H 7700 4480 50  0000 C CNN
F 2 "" H 7700 4300 50  0000 C CNN
F 3 "" H 7700 4300 50  0000 C CNN
	1    7700 4300
	1    0    0    -1  
$EndComp
Text GLabel 8400 4400 2    47   Input ~ 0
+3V3A
Wire Wire Line
	8400 4400 8300 4400
$Comp
L PWR_FLAG #FLG077
U 1 1 5B63CD0A
P 8300 4400
F 0 "#FLG077" H 8300 4495 50  0001 C CNN
F 1 "PWR_FLAG" H 8300 4580 50  0000 C CNN
F 2 "" H 8300 4400 50  0000 C CNN
F 3 "" H 8300 4400 50  0000 C CNN
	1    8300 4400
	0    -1   -1   0   
$EndComp
Text GLabel 2800 2700 2    47   Input ~ 0
SM1
Text GLabel 2800 2500 2    47   Input ~ 0
SM2
Text GLabel 4400 7000 1    47   Input ~ 0
+3V3A
Text GLabel 4100 7000 1    47   Input ~ 0
+3V3A
Text Notes 600  6000 0    60   ~ 0
Servo PWM
Text Notes 600  5500 0    60   ~ 0
Temperature\nSensors
Text Notes 3400 3950 0    60   ~ 0
Main\nPower\n(500mA)
$EndSCHEMATC
